<?xml version="1.0" encoding="UTF-8"?>
<!DOCTYPE svg PUBLIC "-//W3C//DTD SVG 1.1//EN" "http://www.w3.org/Graphics/SVG/1.1/DTD/svg11.dtd">
<!-- Creator: CorelDRAW X8 -->
<svg xmlns="http://www.w3.org/2000/svg" xml:space="preserve" width="87.8838mm" height="14.6472mm" version="1.1" style="shape-rendering:geometricPrecision; text-rendering:geometricPrecision; image-rendering:optimizeQuality; fill-rule:evenodd; clip-rule:evenodd"
viewBox="0 0 8788 1465"
 xmlns:xlink="http://www.w3.org/1999/xlink">
 <defs>
  <style type="text/css">
   <![CDATA[
    .fil9 {fill:#241B17}
    .fil7 {fill:#422215}
    .fil29 {fill:#241B17;fill-rule:nonzero}
    .fil27 {fill:url(#id2)}
    .fil0 {fill:url(#id3)}
    .fil12 {fill:url(#id4)}
    .fil10 {fill:url(#id5)}
    .fil22 {fill:url(#id6)}
    .fil26 {fill:url(#id7)}
    .fil18 {fill:url(#id8)}
    .fil15 {fill:url(#id9)}
    .fil17 {fill:url(#id10)}
    .fil19 {fill:url(#id11)}
    .fil24 {fill:url(#id12)}
    .fil6 {fill:url(#id13)}
    .fil14 {fill:url(#id14)}
    .fil23 {fill:url(#id15)}
    .fil1 {fill:url(#id16)}
    .fil8 {fill:url(#id17)}
    .fil3 {fill:url(#id18)}
    .fil5 {fill:url(#id19)}
    .fil20 {fill:url(#id20)}
    .fil11 {fill:url(#id21)}
    .fil21 {fill:url(#id22)}
    .fil16 {fill:url(#id23)}
    .fil25 {fill:url(#id24)}
    .fil13 {fill:url(#id25)}
    .fil4 {fill:url(#id26)}
    .fil28 {fill:url(#id27)}
    .fil2 {fill:url(#id28)}
   ]]>
  </style>
   <mask id="id0">
  <linearGradient id="id1" gradientUnits="userSpaceOnUse" x1="174.765" y1="1122.79" x2="1179.32" y2="1122.79">
   <stop offset="0" style="stop-opacity:0; stop-color:white"/>
   <stop offset="1" style="stop-opacity:1; stop-color:white"/>
  </linearGradient>
    <rect style="fill:url(#id1)" x="175" y="881" width="1005" height="483"/>
   </mask>
  <linearGradient id="id2" gradientUnits="userSpaceOnUse" x1="187.42" y1="814.519" x2="187.42" y2="623.698">
   <stop offset="0" style="stop-opacity:1; stop-color:#6E3B17"/>
   <stop offset="0.258824" style="stop-opacity:1; stop-color:#5D3112"/>
   <stop offset="1" style="stop-opacity:1; stop-color:#4C270C"/>
  </linearGradient>
  <linearGradient id="id3" gradientUnits="userSpaceOnUse" x1="0.803558" y1="1172.91" x2="1180.25" y2="1172.91">
   <stop offset="0" style="stop-opacity:1; stop-color:#8E4C00"/>
   <stop offset="1" style="stop-opacity:1; stop-color:#C4791C"/>
  </linearGradient>
  <linearGradient id="id4" gradientUnits="userSpaceOnUse" x1="37.6633" y1="779.273" x2="37.6633" y2="650.054">
   <stop offset="0" style="stop-opacity:1; stop-color:#5B2D16"/>
   <stop offset="0.529412" style="stop-opacity:1; stop-color:#4A2412"/>
   <stop offset="1" style="stop-opacity:1; stop-color:#381B0D"/>
  </linearGradient>
  <linearGradient id="id5" gradientUnits="userSpaceOnUse" x1="9.33868" y1="564.7" x2="1169.02" y2="564.7">
   <stop offset="0" style="stop-opacity:1; stop-color:#381B0B"/>
   <stop offset="0.54902" style="stop-opacity:1; stop-color:#7A440E"/>
   <stop offset="0.890196" style="stop-opacity:1; stop-color:#9B5812"/>
   <stop offset="1" style="stop-opacity:1; stop-color:#995317"/>
  </linearGradient>
  <linearGradient id="id6" gradientUnits="userSpaceOnUse" x1="414.784" y1="446.985" x2="414.784" y2="326.19">
   <stop offset="0" style="stop-opacity:1; stop-color:#824818"/>
   <stop offset="1" style="stop-opacity:1; stop-color:#693A0D"/>
  </linearGradient>
  <linearGradient id="id7" gradientUnits="userSpaceOnUse" x1="1159.2" y1="502.824" x2="1036.57" y2="568.318">
   <stop offset="0" style="stop-opacity:1; stop-color:#9A5515"/>
   <stop offset="0.0901961" style="stop-opacity:1; stop-color:#9E5C15"/>
   <stop offset="1" style="stop-opacity:1; stop-color:#A36415"/>
  </linearGradient>
  <linearGradient id="id8" gradientUnits="userSpaceOnUse" x1="433.832" y1="774.608" x2="433.832" y2="628.013">
   <stop offset="0" style="stop-opacity:1; stop-color:#834518"/>
   <stop offset="1" style="stop-opacity:1; stop-color:#67380D"/>
  </linearGradient>
  <linearGradient id="id9" gradientUnits="userSpaceOnUse" x1="266.007" y1="570.987" x2="266.007" y2="377.661">
   <stop offset="0" style="stop-opacity:1; stop-color:#60320E"/>
   <stop offset="0.129412" style="stop-opacity:1; stop-color:#5C310D"/>
   <stop offset="1" style="stop-opacity:1; stop-color:#582F0C"/>
  </linearGradient>
  <linearGradient id="id10" gradientUnits="userSpaceOnUse" x1="293.826" y1="806.085" x2="293.826" y2="761.056">
   <stop offset="0" style="stop-opacity:1; stop-color:#915226"/>
   <stop offset="1" style="stop-opacity:1; stop-color:#77431B"/>
  </linearGradient>
  <linearGradient id="id11" gradientUnits="userSpaceOnUse" x1="614.548" y1="689.007" x2="614.548" y2="476.2">
   <stop offset="0" style="stop-opacity:1; stop-color:#A25412"/>
   <stop offset="0.490196" style="stop-opacity:1; stop-color:#8E4D12"/>
   <stop offset="1" style="stop-opacity:1; stop-color:#7A4513"/>
  </linearGradient>
  <linearGradient id="id12" gradientUnits="userSpaceOnUse" x1="760.068" y1="413.221" x2="820.455" y2="326.576">
   <stop offset="0" style="stop-opacity:1; stop-color:#C67F15"/>
   <stop offset="0.419608" style="stop-opacity:1; stop-color:#A56612"/>
   <stop offset="1" style="stop-opacity:1; stop-color:#844C0F"/>
  </linearGradient>
  <linearGradient id="id13" gradientUnits="userSpaceOnUse" x1="609.84" y1="238.4" x2="609.84" y2="-0.46">
   <stop offset="0" style="stop-opacity:1; stop-color:#27130A"/>
   <stop offset="1" style="stop-opacity:1; stop-color:#522B1B"/>
  </linearGradient>
  <linearGradient id="id14" gradientUnits="userSpaceOnUse" x1="75.1707" y1="811.144" x2="75.1707" y2="744.62">
   <stop offset="0" style="stop-opacity:1; stop-color:#663517"/>
   <stop offset="0.568627" style="stop-opacity:1; stop-color:#552C15"/>
   <stop offset="1" style="stop-opacity:1; stop-color:#442312"/>
  </linearGradient>
  <linearGradient id="id15" gradientUnits="userSpaceOnUse" x1="604.454" y1="427.1" x2="604.454" y2="313.86">
   <stop offset="0" style="stop-opacity:1; stop-color:#BD6B19"/>
   <stop offset="1" style="stop-opacity:1; stop-color:#7B4610"/>
  </linearGradient>
  <linearGradient id="id16" gradientUnits="userSpaceOnUse" x1="543.54" y1="1400.3" x2="810.547" y2="845.29">
   <stop offset="0" style="stop-opacity:1; stop-color:#B56F1A"/>
   <stop offset="0.678431" style="stop-opacity:1; stop-color:#F9E493"/>
   <stop offset="1" style="stop-opacity:1; stop-color:#BF8B3A"/>
  </linearGradient>
  <linearGradient id="id17" gradientUnits="userSpaceOnUse" x1="556.49" y1="180.92" x2="625.96" y2="180.92">
   <stop offset="0" style="stop-opacity:1; stop-color:#5D3420"/>
   <stop offset="0.988235" style="stop-opacity:1; stop-color:#30180E"/>
   <stop offset="1" style="stop-opacity:1; stop-color:#331A0F"/>
  </linearGradient>
  <linearGradient id="id18" gradientUnits="userSpaceOnUse" x1="0.19" y1="1010.61" x2="1016.19" y2="1010.61">
   <stop offset="0" style="stop-opacity:1; stop-color:#CB8525"/>
   <stop offset="0.0431373" style="stop-opacity:1; stop-color:#D89B35"/>
   <stop offset="0.168627" style="stop-opacity:1; stop-color:#E5B245"/>
   <stop offset="0.321569" style="stop-opacity:1; stop-color:#AA6611"/>
   <stop offset="0.811765" style="stop-opacity:1; stop-color:#D7A854"/>
   <stop offset="1" style="stop-opacity:1; stop-color:#E5B245"/>
  </linearGradient>
  <linearGradient id="id19" gradientUnits="userSpaceOnUse" x1="301.811" y1="1092.62" x2="301.811" y2="905.076">
   <stop offset="0" style="stop-opacity:1; stop-color:#784600"/>
   <stop offset="1" style="stop-opacity:1; stop-color:#B36B0D"/>
  </linearGradient>
  <linearGradient id="id20" gradientUnits="userSpaceOnUse" x1="712.398" y1="576.139" x2="712.398" y2="363.04">
   <stop offset="0" style="stop-opacity:1; stop-color:#D68B18"/>
   <stop offset="0.411765" style="stop-opacity:1; stop-color:#AB6914"/>
   <stop offset="1" style="stop-opacity:1; stop-color:#7F470F"/>
  </linearGradient>
  <linearGradient id="id21" gradientUnits="userSpaceOnUse" x1="487.022" y1="599.297" x2="487.022" y2="345.966">
   <stop offset="0" style="stop-opacity:1; stop-color:#B05F1D"/>
   <stop offset="0.219608" style="stop-opacity:1; stop-color:#8C4C15"/>
   <stop offset="0.439216" style="stop-opacity:1; stop-color:#995518"/>
   <stop offset="1" style="stop-opacity:1; stop-color:#68390D"/>
  </linearGradient>
  <linearGradient id="id22" gradientUnits="userSpaceOnUse" x1="899.285" y1="620.293" x2="899.285" y2="459.108">
   <stop offset="0" style="stop-opacity:1; stop-color:#C78018"/>
   <stop offset="0.65098" style="stop-opacity:1; stop-color:#A76614"/>
   <stop offset="1" style="stop-opacity:1; stop-color:#874C10"/>
  </linearGradient>
  <linearGradient id="id23" gradientUnits="userSpaceOnUse" x1="328.721" y1="744.816" x2="328.721" y2="487.949">
   <stop offset="0" style="stop-opacity:1; stop-color:#854619"/>
   <stop offset="0.278431" style="stop-opacity:1; stop-color:#713C13"/>
   <stop offset="1" style="stop-opacity:1; stop-color:#5D320D"/>
  </linearGradient>
  <linearGradient id="id24" gradientUnits="userSpaceOnUse" x1="876.067" y1="505.054" x2="966.656" y2="371.844">
   <stop offset="0" style="stop-opacity:1; stop-color:#CB831D"/>
   <stop offset="0.231373" style="stop-opacity:1; stop-color:#AC6B17"/>
   <stop offset="1" style="stop-opacity:1; stop-color:#8D5310"/>
  </linearGradient>
  <linearGradient id="id25" gradientUnits="userSpaceOnUse" x1="122.81" y1="715.696" x2="122.81" y2="481.888">
   <stop offset="0" style="stop-opacity:1; stop-color:#532914"/>
   <stop offset="0.301961" style="stop-opacity:1; stop-color:#4C2610"/>
   <stop offset="0.701961" style="stop-opacity:1; stop-color:#45220C"/>
   <stop offset="1" style="stop-opacity:1; stop-color:#45220C"/>
  </linearGradient>
  <linearGradient id="id26" gradientUnits="userSpaceOnUse" x1="241.965" y1="1146.29" x2="353.542" y2="877.54">
   <stop offset="0" style="stop-opacity:1; stop-color:#552F00"/>
   <stop offset="0.588235" style="stop-opacity:1; stop-color:#6D3D05"/>
   <stop offset="1" style="stop-opacity:1; stop-color:#854C0A"/>
  </linearGradient>
  <linearGradient id="id27" gradientUnits="userSpaceOnUse" x1="21.6689" y1="689.802" x2="1171.85" y2="689.802">
   <stop offset="0" style="stop-opacity:1; stop-color:#643902"/>
   <stop offset="0.321569" style="stop-opacity:1; stop-color:#643902"/>
   <stop offset="0.741176" style="stop-opacity:1; stop-color:#CA8C27"/>
   <stop offset="1" style="stop-opacity:1; stop-color:#EBA83D"/>
  </linearGradient>
  <linearGradient id="id28" gradientUnits="userSpaceOnUse" x1="453.877" y1="1463.16" x2="453.877" y2="1308.02">
   <stop offset="0" style="stop-opacity:0; stop-color:#7C440B"/>
   <stop offset="1" style="stop-opacity:1; stop-color:#BF761A"/>
  </linearGradient>
 </defs>
 <g id="Слой_x0020_1">
  <metadata id="CorelCorpID_0Corel-Layer"/>
  <path class="fil0" d="M1178 989c-5,23 -18,60 -41,97 -24,37 -59,74 -93,106 -34,32 -67,58 -100,79 -33,21 -67,37 -104,54 -37,18 -77,37 -106,52 -28,15 -45,27 -61,40 -17,12 -33,27 -43,35 -11,8 -16,10 -22,11 -6,2 -13,2 -22,-1 -9,-4 -21,-11 -36,-23 -15,-12 -34,-27 -54,-40 -20,-13 -41,-24 -80,-41 -39,-17 -95,-41 -141,-66 -45,-24 -80,-50 -108,-72 -29,-23 -52,-43 -71,-63 -20,-20 -36,-40 -46,-53 -10,-13 -14,-20 -20,-31 -6,-12 -15,-28 -20,-46 -5,-18 -7,-37 -8,-47 -1,-10 -2,-11 0,-1 2,10 7,30 15,52 9,21 21,44 35,60 13,16 28,26 59,33 31,7 78,11 128,5 49,-5 101,-20 155,-37 54,-17 111,-36 156,-54 46,-18 80,-35 125,-54 46,-20 101,-42 152,-60 51,-17 96,-30 140,-37 45,-7 88,-7 121,-2 33,5 55,16 68,27 14,11 17,21 21,32 3,10 5,21 1,45z"/>
  <path class="fil1" style="mask:url(#id0)" d="M175 1131c25,27 49,53 79,77 29,25 63,47 100,69 38,23 79,47 119,62 39,15 77,20 119,23 41,3 86,3 119,1 33,-3 54,-8 88,-22 34,-14 81,-38 115,-57 35,-19 58,-34 76,-47 18,-13 32,-25 51,-43 20,-19 44,-45 63,-68 19,-23 33,-43 42,-59 9,-16 15,-29 20,-41 5,-13 9,-25 12,-39 2,-13 2,-28 -1,-40 -3,-13 -9,-24 -16,-32 -8,-8 -17,-12 -26,-16 -9,-4 -18,-7 -28,-11 -10,-3 -22,-5 -39,-6 -17,-1 -39,-1 -61,1 -21,1 -44,4 -74,11 -30,7 -68,17 -119,35 -51,19 -114,45 -157,63 -43,18 -66,29 -92,39 -26,11 -54,21 -88,33 -34,12 -74,24 -111,35 -37,11 -71,19 -100,24 -29,5 -54,7 -68,8 -14,1 -19,1 -23,0z"/>
  <path class="fil2" d="M600 1463c2,0 2,-1 1,-5 -1,-3 -3,-8 -4,-16 -1,-7 0,-18 1,-25 1,-8 3,-13 3,-18 0,-5 -2,-9 -7,-10 -6,-1 -15,0 -31,-2 -17,-2 -40,-9 -69,-17 -28,-7 -63,-16 -96,-27 -33,-11 -64,-24 -80,-30 -16,-7 -17,-7 6,3 22,10 67,30 100,46 33,16 55,28 71,38 17,10 28,18 39,27 11,8 22,16 31,22 8,6 15,9 21,11 5,2 11,3 14,3z"/>
  <path class="fil3" d="M1016 882c-17,1 -35,2 -62,7 -26,5 -62,13 -93,22 -31,9 -57,18 -96,33 -40,15 -92,37 -136,54 -44,18 -80,32 -103,41 -22,9 -32,13 -48,18 -15,5 -37,11 -69,20 -32,10 -75,22 -106,29 -32,8 -52,11 -73,14 -20,2 -40,3 -56,3 -16,-1 -29,-3 -39,-5 -10,-2 -17,-4 -26,-9 -9,-5 -21,-13 -31,-22 -10,-10 -19,-21 -26,-35 -8,-13 -13,-29 -16,-45 -3,-17 -2,-34 2,-46 3,-13 10,-21 17,-29 8,-7 17,-15 28,-20 11,-5 23,-8 41,-9 17,-2 39,-2 63,0 24,2 50,7 83,16 33,8 73,21 123,39 51,18 111,42 140,54 30,13 30,13 34,11 4,-1 13,-5 17,-7 4,-1 4,-1 -19,-10 -23,-9 -69,-27 -111,-43 -42,-15 -79,-29 -112,-40 -33,-11 -62,-20 -88,-26 -27,-6 -51,-10 -75,-12 -24,-2 -48,-3 -70,0 -22,3 -42,8 -57,15 -16,8 -27,17 -35,27 -8,10 -13,20 -15,32 -3,12 -2,26 0,41 3,15 8,32 13,43 5,12 9,19 16,28 6,8 15,19 22,26 7,7 12,12 22,18 10,6 24,13 39,18 15,4 31,5 47,6 15,0 30,0 53,-2 22,-3 52,-8 81,-14 29,-7 57,-15 88,-24 30,-9 64,-20 93,-29 29,-10 54,-19 84,-31 31,-12 67,-27 100,-40 34,-14 64,-26 96,-38 32,-12 64,-24 88,-32 24,-9 40,-13 59,-19 18,-5 40,-11 59,-16 20,-5 37,-8 54,-12z"/>
  <path class="fil4" d="M479 991c-24,-10 -42,-17 -62,-24 -19,-7 -40,-15 -60,-22 -20,-7 -39,-13 -60,-19 -21,-6 -44,-12 -60,-15 -15,-4 -23,-5 -28,-6 -5,0 -8,-1 -13,-1 -6,-1 -15,-2 -23,-3 -8,0 -17,-1 -27,0 -9,0 -21,0 -33,2 -12,2 -25,6 -37,12 -12,7 -23,17 -29,25 -7,8 -9,13 -11,20 -3,6 -5,13 -6,21 -1,9 -1,18 1,30 3,13 8,27 15,41 8,14 18,28 29,38 12,10 26,17 39,22 13,5 25,8 40,10 14,1 31,2 48,1 18,-1 36,-3 56,-7 19,-3 39,-8 59,-13 20,-5 41,-10 64,-17 23,-7 49,-14 72,-21 22,-7 41,-14 59,-20 18,-7 36,-14 54,-21 -31,-12 -62,-24 -87,-33z"/>
  <path class="fil5" d="M566 1024c-3,-1 -6,-3 -38,-14 -31,-11 -91,-33 -130,-46 -39,-14 -57,-20 -78,-26 -22,-7 -46,-13 -65,-18 -18,-5 -30,-7 -41,-9 -12,-2 -24,-4 -36,-5 -13,-1 -25,-1 -37,-1 -12,1 -22,2 -31,4 -9,1 -16,4 -22,6 -6,3 -11,5 -16,9 -5,4 -11,9 -16,14 -4,4 -7,9 -9,14 -3,4 -6,10 -8,16 -1,7 -2,14 -1,24 2,10 6,23 12,35 7,12 15,23 31,34 16,11 38,23 64,28 26,5 55,4 90,0 34,-4 74,-12 116,-20 42,-8 86,-16 119,-23 33,-6 55,-12 70,-16 14,-3 20,-5 26,-6z"/>
  <path class="fil6" d="M554 39c0,6 3,11 10,15 6,4 17,5 25,6 8,0 15,-1 22,3 8,3 16,10 24,23 7,13 14,32 18,52 4,20 5,42 5,59 -1,17 -3,30 -4,37 -1,6 -1,7 2,-5 2,-12 7,-35 9,-62 2,-27 1,-58 -4,-82 -4,-24 -13,-42 -19,-54 -6,-12 -11,-19 -16,-23 -4,-5 -9,-7 -16,-8 -7,-1 -17,-1 -25,3 -9,3 -17,9 -23,16 -5,7 -8,13 -8,20z"/>
  <path class="fil7" d="M558 49c-1,0 0,2 5,11 4,10 11,27 22,54 10,26 23,63 28,94 6,31 5,56 5,73 -1,18 -1,26 -1,31 0,5 0,7 5,-4 6,-12 18,-37 26,-55 7,-19 11,-31 11,-54 1,-24 -1,-59 -8,-84 -7,-25 -18,-40 -27,-48 -9,-9 -16,-11 -23,-11 -6,-1 -13,0 -19,0 -6,0 -12,-1 -16,-3 -4,-1 -7,-3 -8,-4z"/>
  <path class="fil8" d="M612 317c-5,0 -14,0 -19,-1 -5,-1 -4,-2 -3,-11 2,-9 5,-25 7,-40 2,-16 3,-31 3,-47 0,-17 -2,-35 -4,-52 -3,-18 -7,-36 -12,-52 -5,-16 -12,-32 -17,-43 -4,-11 -7,-19 -9,-23 -2,-4 -3,-5 2,4 4,8 14,25 24,50 11,24 22,55 29,79 8,24 11,42 12,58 1,16 1,31 0,43 -1,12 -3,22 -5,27 -1,6 -1,6 -2,7 0,0 -1,1 -6,1z"/>
  <path class="fil9" d="M570 22c-5,4 -8,10 -9,15 0,5 2,11 8,13 5,3 13,3 21,1 7,-2 14,-5 20,-12 7,-6 12,-16 12,-22 -1,-7 -6,-11 -13,-12 -7,-1 -16,1 -22,4 -7,4 -13,8 -17,13z"/>
  <path class="fil10" d="M18 666c-6,18 -9,34 -9,50 1,17 6,33 12,46 7,12 15,21 26,28 10,8 24,13 40,18 15,5 33,9 60,9 26,0 61,-3 94,-8 33,-6 64,-14 107,-28 42,-14 97,-35 150,-56 54,-20 106,-41 163,-61 56,-21 117,-41 164,-55 47,-15 79,-23 111,-29 32,-6 63,-10 96,-9 33,1 67,6 90,14 24,9 37,20 43,26 6,5 4,3 3,2 -1,-1 -1,-2 -10,-14 -8,-13 -25,-36 -46,-60 -20,-24 -44,-49 -70,-71 -25,-22 -53,-41 -90,-61 -37,-20 -83,-42 -123,-56 -39,-15 -72,-23 -108,-29 -36,-6 -75,-10 -118,-10 -44,0 -91,4 -149,18 -57,14 -125,39 -181,72 -57,33 -103,75 -140,111 -37,36 -65,67 -83,92 -18,25 -26,44 -32,61z"/>
  <path class="fil11" d="M378 465c-4,12 5,30 15,47 11,16 23,33 34,47 12,13 22,24 29,30 6,7 8,9 12,10 4,1 10,0 22,-7 11,-7 28,-19 43,-30 15,-12 27,-22 36,-36 10,-14 18,-32 22,-47 4,-16 5,-29 6,-36 0,-7 0,-9 -8,-16 -7,-7 -21,-18 -37,-33 -16,-14 -33,-32 -42,-41 -9,-9 -9,-9 -13,-3 -5,6 -14,18 -29,33 -14,16 -32,34 -50,48 -18,13 -35,21 -40,34z"/>
  <path class="fil12" d="M66 726c-1,9 -9,20 -14,29 -6,10 -11,17 -13,21 -3,4 -4,5 -7,1 -3,-3 -9,-11 -13,-20 -4,-10 -8,-23 -9,-36 -1,-13 0,-27 2,-39 3,-11 7,-21 10,-27 3,-6 4,-8 10,1 5,8 15,27 22,40 7,13 13,21 12,30z"/>
  <path class="fil13" d="M41 635c-2,11 1,22 6,33 6,11 13,23 19,32 5,8 8,13 11,15 4,2 7,1 14,-4 6,-4 15,-11 29,-23 13,-11 31,-27 45,-42 14,-15 23,-30 30,-41 7,-12 11,-20 10,-28 -1,-8 -7,-16 -14,-26 -6,-10 -12,-23 -16,-35 -4,-11 -5,-21 -5,-27 -1,-6 -1,-9 -5,-6 -4,2 -11,9 -21,18 -10,9 -22,19 -37,36 -16,17 -34,40 -46,58 -13,17 -19,29 -20,40z"/>
  <path class="fil14" d="M107 811c3,0 -1,-3 -4,-5 -3,-3 -5,-5 -8,-8 -2,-3 -5,-7 -8,-14 -2,-7 -6,-17 -8,-25 -2,-8 -4,-14 -7,-14 -2,-1 -7,5 -11,12 -5,7 -10,15 -14,20 -3,5 -3,7 -4,7 0,1 -1,2 1,3 3,2 7,5 14,8 7,3 16,7 26,10 10,3 19,6 23,6z"/>
  <path class="fil15" d="M175 483c-1,9 0,24 6,39 5,15 14,29 21,38 6,8 10,11 19,11 9,-1 25,-5 40,-12 16,-7 32,-18 46,-32 15,-14 29,-31 38,-44 8,-13 13,-22 13,-29 -1,-7 -5,-13 -11,-23 -5,-11 -10,-27 -13,-37 -2,-10 -2,-16 -7,-16 -5,-1 -15,4 -30,12 -15,8 -36,20 -56,34 -20,13 -39,28 -50,37 -12,9 -15,12 -16,22z"/>
  <path class="fil16" d="M376 507c8,14 21,37 35,56 13,19 27,33 34,43 8,9 8,13 1,24 -6,12 -20,32 -40,50 -19,18 -43,35 -61,46 -18,11 -28,17 -34,19 -5,1 -6,-3 -11,-10 -6,-6 -16,-15 -30,-30 -13,-14 -29,-33 -40,-49 -11,-16 -17,-29 -20,-40 -4,-11 -5,-20 -2,-25 2,-6 7,-7 15,-10 7,-2 17,-5 30,-11 14,-6 32,-14 48,-27 17,-12 32,-29 41,-40 10,-11 14,-15 18,-15 4,0 8,5 16,19z"/>
  <path class="fil17" d="M331 782c-4,-6 -9,-11 -12,-15 -4,-4 -5,-7 -8,-6 -3,2 -7,7 -13,12 -5,6 -11,12 -19,17 -7,6 -16,11 -20,14 -4,3 -4,3 2,1 6,-2 19,-5 31,-9 13,-5 26,-9 39,-14z"/>
  <path class="fil18" d="M325 754c1,4 5,12 9,16 4,4 7,6 19,3 12,-3 33,-11 54,-19 22,-8 44,-16 66,-25 23,-8 45,-17 57,-21 12,-5 15,-6 10,-13 -5,-6 -18,-18 -30,-30 -12,-12 -23,-23 -31,-30 -8,-6 -12,-9 -17,-5 -5,4 -11,15 -21,27 -9,12 -22,25 -37,39 -15,13 -33,26 -46,34 -13,8 -21,11 -26,14 -5,3 -8,5 -7,10z"/>
  <path class="fil19" d="M482 616c5,9 19,23 32,36 14,13 25,24 33,30 7,7 10,9 22,6 11,-3 31,-11 54,-19 22,-8 46,-17 67,-24 20,-7 37,-12 47,-15 9,-3 12,-4 12,-9 1,-4 -1,-12 -1,-17 -1,-6 0,-9 -12,-17 -11,-7 -35,-18 -56,-31 -20,-14 -36,-30 -49,-45 -12,-16 -21,-31 -26,-34 -5,-3 -6,5 -11,18 -5,14 -15,32 -27,47 -11,15 -25,28 -39,38 -14,9 -29,15 -38,20 -9,4 -13,7 -8,16z"/>
  <path class="fil20" d="M804 424c6,6 7,11 7,23 0,11 -2,28 -6,46 -4,17 -10,34 -17,49 -7,14 -15,26 -27,31 -12,5 -28,5 -49,-7 -20,-12 -46,-34 -63,-51 -17,-18 -27,-31 -31,-43 -5,-13 -5,-25 -3,-33 3,-9 8,-13 16,-20 8,-8 20,-20 32,-32 13,-13 27,-26 45,-24 19,3 43,22 61,35 18,13 29,20 35,26z"/>
  <path class="fil21" d="M783 615c22,-7 67,-22 110,-32 44,-10 87,-15 113,-17 25,-1 33,0 33,-6 0,-6 -8,-20 -14,-29 -5,-8 -8,-12 -19,-14 -11,-1 -31,0 -52,-3 -21,-3 -44,-10 -63,-17 -19,-8 -35,-17 -46,-25 -12,-8 -18,-14 -21,-13 -4,1 -5,10 -6,17 -1,8 -3,14 -6,27 -4,13 -9,32 -15,47 -7,15 -15,27 -21,34 -6,7 -10,10 -13,13 -2,4 -3,7 -3,11 0,4 0,8 0,11 1,2 1,3 23,-4z"/>
  <path class="fil22" d="M339 376c1,7 4,19 8,30 4,11 8,20 12,28 4,8 8,14 16,13 8,-2 21,-12 33,-21 12,-10 22,-19 32,-28 9,-9 18,-18 26,-27 8,-9 15,-17 19,-23 4,-5 5,-8 5,-11 0,-4 0,-8 -5,-10 -4,-2 -13,0 -24,2 -12,2 -26,6 -41,10 -16,4 -33,9 -46,14 -13,4 -22,8 -27,11 -6,3 -8,5 -8,12z"/>
  <path class="fil23" d="M511 341c10,9 22,23 36,36 13,14 27,26 37,34 10,8 15,13 20,15 4,2 8,2 19,-8 10,-9 28,-28 42,-42 15,-14 25,-24 33,-32 9,-8 14,-14 14,-19 -1,-4 -9,-6 -23,-8 -15,-2 -37,-2 -58,-3 -21,0 -41,0 -60,0 -18,1 -34,2 -47,3 -14,2 -24,3 -26,6 -2,3 4,8 13,18z"/>
  <path class="fil24" d="M725 331c2,7 10,20 20,32 10,12 21,24 31,32 9,9 18,15 24,18 7,3 11,4 18,-2 8,-7 18,-20 25,-29 7,-8 11,-13 12,-16 1,-3 0,-4 -5,-7 -6,-3 -15,-7 -29,-12 -13,-4 -31,-9 -47,-14 -15,-4 -28,-7 -37,-8 -9,-1 -13,-1 -12,6z"/>
  <path class="fil25" d="M1022 461c0,8 -1,24 -2,33 0,10 0,12 -5,13 -5,1 -15,0 -31,-1 -15,-1 -36,-3 -58,-9 -23,-7 -47,-18 -65,-29 -18,-10 -31,-20 -37,-29 -6,-9 -5,-17 1,-27 6,-10 17,-22 25,-30 8,-8 11,-12 18,-12 7,0 17,4 33,11 16,7 37,17 57,28 19,11 37,23 48,31 10,8 14,10 15,11 2,2 2,2 1,10z"/>
  <path class="fil26" d="M1033 469c0,8 -1,22 -2,31 -1,8 -2,12 0,18 2,7 7,16 12,24 4,9 8,17 10,21 3,5 4,6 10,7 7,2 18,2 28,4 11,2 22,5 31,8 8,3 16,7 22,11 7,4 12,9 16,12 3,2 5,4 5,4 1,1 2,1 -3,-6 -5,-7 -15,-22 -27,-37 -12,-15 -26,-30 -38,-44 -13,-14 -24,-25 -35,-35 -10,-11 -20,-20 -24,-23 -5,-4 -5,-3 -5,5z"/>
  <path class="fil27" d="M296 747c3,10 -4,21 -15,32 -11,11 -25,21 -36,26 -11,5 -18,5 -38,7 -19,1 -49,4 -70,1 -21,-3 -33,-13 -41,-27 -8,-15 -13,-33 -15,-44 -3,-11 -3,-15 -3,-17 1,-2 2,-4 7,-6 5,-3 14,-7 31,-22 17,-14 42,-39 57,-55 15,-16 20,-22 27,-16 7,6 15,25 26,42 10,17 23,32 37,45 14,13 29,23 33,34z"/>
  <path class="fil28" d="M1156 596c-4,-4 -9,-8 -18,-12 -9,-5 -20,-9 -30,-12 -9,-2 -17,-4 -26,-5 -8,-1 -19,-3 -32,-4 -14,0 -32,-1 -53,1 -20,2 -44,5 -70,10 -25,4 -52,10 -80,18 -29,8 -59,18 -83,26 -24,8 -43,14 -70,23 -28,10 -64,23 -99,36 -35,14 -69,27 -107,42 -39,15 -82,30 -113,42 -30,11 -47,18 -64,23 -16,6 -32,11 -48,15 -16,4 -33,6 -51,9 -19,2 -38,4 -55,4 -17,1 -30,0 -42,-2 -13,-2 -26,-6 -36,-10 -11,-3 -19,-7 -27,-11 -7,-5 -14,-10 -19,-15 -5,-4 -8,-8 -10,-10 -2,-2 -2,-2 0,0 1,2 4,6 7,10 3,4 6,7 10,11 4,3 9,6 16,10 7,4 16,8 25,11 10,3 19,5 28,7 8,2 16,3 24,3 9,1 18,1 30,0 12,0 27,-1 37,-2 11,-1 17,-2 27,-3 9,-2 22,-4 33,-6 11,-3 21,-5 31,-7 10,-3 22,-6 32,-9 10,-3 20,-6 34,-11 13,-5 31,-11 50,-18 19,-7 40,-15 63,-24 22,-8 45,-17 70,-27 24,-9 50,-19 67,-25 18,-7 26,-10 35,-13 8,-3 15,-6 24,-9 8,-3 17,-6 26,-9 10,-4 21,-8 31,-11 11,-4 21,-7 33,-11 12,-4 25,-9 37,-12 13,-4 24,-8 35,-11 10,-3 20,-6 29,-9 9,-2 17,-5 27,-7 9,-3 20,-5 28,-7 8,-2 14,-3 21,-4 7,-2 14,-3 22,-4 8,-1 16,-2 25,-3 8,-1 18,-2 27,-2 8,-1 17,-1 25,-1 9,1 17,1 25,2 8,0 15,1 23,2 8,2 15,3 24,5 8,2 17,5 24,8 7,2 12,5 17,8 4,3 9,6 13,9 4,3 8,7 10,9 2,2 3,3 4,4 0,0 0,0 -1,-2 -2,-2 -5,-7 -7,-11 -3,-3 -4,-6 -8,-9z"/>
  <path class="fil29" d="M2007 1368c95,0 172,-22 236,-68 61,-45 92,-107 92,-186 -4,-98 -43,-159 -120,-199 -55,-27 -91,-43 -156,-61l-97 -30c-22,-7 -62,-19 -77,-31 -27,-18 -49,-40 -49,-76 0,-65 55,-107 174,-107 95,0 184,24 269,79l0 -135c-79,-48 -168,-70 -272,-70 -192,0 -308,92 -308,232 0,77 24,132 85,172 34,18 61,33 86,42 27,10 64,22 113,37l15 3c55,16 80,22 119,40 19,9 34,18 43,27 22,19 37,46 37,80 0,79 -86,125 -196,125 -61,0 -119,-9 -177,-33 -58,-22 -104,-46 -138,-77l0 144c86,61 190,92 321,92l0 0zm768 0c70,0 134,-16 192,-49l0 -110c-52,30 -107,42 -171,42 -61,0 -110,-18 -153,-55 -39,-36 -61,-85 -61,-143 0,-58 22,-104 61,-144 43,-37 92,-55 153,-55 52,0 107,12 159,40l0 -113c-52,-31 -113,-43 -180,-43 -89,0 -165,30 -230,89 -61,58 -94,134 -94,226 0,91 33,168 94,226 65,61 141,89 230,89l0 0zm486 -16l0 -366c27,-62 101,-117 195,-117 13,0 25,0 37,3l0 -134c-3,0 -6,0 -12,0 -92,0 -180,49 -220,119l0 -104 -132 0 0 599 132 0 0 0zm914 -101c-28,0 -49,-24 -49,-61l0 -223c0,-147 -113,-229 -278,-229 -86,0 -159,18 -217,52l0 116c58,-37 119,-55 189,-55 116,0 174,43 174,132l0 33c-55,-30 -119,-49 -192,-49 -67,0 -122,19 -168,55 -49,34 -71,83 -71,144 0,64 22,113 65,150 42,33 94,52 159,52 94,0 168,-31 220,-92 18,58 61,86 128,86 31,0 58,-6 77,-19l0 -101c-13,6 -22,10 -37,10l0 -1zm-180 -67c-37,40 -101,71 -172,71 -76,0 -128,-31 -128,-95 0,-58 52,-92 141,-92 55,0 110,15 159,43l0 73zm397 6c0,117 70,178 183,178 58,0 104,-9 132,-28l0 -113c-28,12 -58,21 -89,21 -64,0 -95,-27 -95,-97l0 -282 190 0 0 -116 -190 0 0 -174 -131 0 0 174 -128 0 0 116 128 0 0 321 0 0zm932 162l0 -394 447 0 0 394 134 0 0 -853 -134 0 0 337 -447 0 0 -337 -134 0 0 853 134 0zm1067 -101c-58,0 -104,-18 -140,-55 -40,-39 -58,-85 -58,-143 0,-55 18,-104 58,-141 36,-40 82,-58 140,-58 55,0 101,18 141,58 37,37 55,86 55,141 0,58 -18,104 -55,143 -40,37 -86,55 -141,55zm0 117c95,0 174,-31 236,-92 61,-61 91,-135 91,-223 0,-89 -30,-162 -91,-223 -62,-62 -141,-92 -236,-92 -98,0 -174,30 -238,92 -61,61 -92,134 -92,223 0,88 31,162 92,223 64,61 140,92 238,92zm905 -220c-37,55 -104,97 -171,97 -76,0 -141,-36 -141,-155l0 -337 -131 0 0 367c0,156 79,248 223,248 86,0 159,-31 220,-95l0 79 132 0 0 -599 -132 0 0 395 0 0zm532 220c156,0 260,-74 260,-181 0,-94 -67,-159 -205,-189l-67 -15c-19,-4 -46,-13 -58,-19 -22,-9 -40,-24 -40,-46 0,-39 43,-67 125,-67 71,0 144,21 214,61l0 -119c-55,-37 -128,-55 -220,-55 -159,0 -253,67 -253,174 0,104 64,153 201,190l74 18c18,3 46,12 58,15 21,13 36,25 36,49 0,43 -48,71 -131,71 -92,0 -174,-25 -245,-71l0 123c52,36 150,61 251,61zm367 -315c0,95 34,168 98,229 64,58 140,86 235,86 92,0 165,-19 220,-58l0 -110c-61,33 -122,51 -192,51 -123,0 -211,-58 -227,-158l459 0 0 -34c0,-110 -37,-208 -125,-272 -46,-34 -98,-49 -159,-49 -92,0 -165,30 -223,92 -55,58 -86,134 -86,223zm134 -61c10,-80 74,-144 169,-144 49,0 85,15 116,46 27,27 40,61 43,98l-328 0z"/>
 </g>
</svg>
